%YAML 1.1
%TAG !u! tag:unity3d.com,2011:
--- !u!1001 &7296613353197927883
PrefabInstance:
  m_ObjectHideFlags: 0
  serializedVersion: 2
  m_Modification:
    m_TransformParent: {fileID: 0}
    m_Modifications:
    - target: {fileID: 7296984637994138897, guid: 983d4f3ae313f9048be67c58265566c1,
        type: 3}
      propertyPath: m_Name
      value: Eff9_Right
      objectReference: {fileID: 0}
    - target: {fileID: 7299264624478513297, guid: 983d4f3ae313f9048be67c58265566c1,
        type: 3}
      propertyPath: m_LocalPosition.x
      value: 0
      objectReference: {fileID: 0}
    - target: {fileID: 7299264624478513297, guid: 983d4f3ae313f9048be67c58265566c1,
        type: 3}
      propertyPath: m_LocalPosition.y
      value: 0
      objectReference: {fileID: 0}
    - target: {fileID: 7299264624478513297, guid: 983d4f3ae313f9048be67c58265566c1,
        type: 3}
      propertyPath: m_LocalPosition.z
      value: 0
      objectReference: {fileID: 0}
    - target: {fileID: 7299264624478513297, guid: 983d4f3ae313f9048be67c58265566c1,
        type: 3}
      propertyPath: m_LocalRotation.x
      value: 0
      objectReference: {fileID: 0}
    - target: {fileID: 7299264624478513297, guid: 983d4f3ae313f9048be67c58265566c1,
        type: 3}
      propertyPath: m_LocalRotation.y
      value: 0
      objectReference: {fileID: 0}
    - target: {fileID: 7299264624478513297, guid: 983d4f3ae313f9048be67c58265566c1,
        type: 3}
      propertyPath: m_LocalRotation.z
      value: 0
      objectReference: {fileID: 0}
    - target: {fileID: 7299264624478513297, guid: 983d4f3ae313f9048be67c58265566c1,
        type: 3}
      propertyPath: m_LocalRotation.w
      value: 1
      objectReference: {fileID: 0}
    - target: {fileID: 7299264624478513297, guid: 983d4f3ae313f9048be67c58265566c1,
        type: 3}
      propertyPath: m_RootOrder
      value: 0
      objectReference: {fileID: 0}
    - target: {fileID: 7299264624478513297, guid: 983d4f3ae313f9048be67c58265566c1,
        type: 3}
      propertyPath: m_LocalEulerAnglesHint.x
      value: 0
      objectReference: {fileID: 0}
    - target: {fileID: 7299264624478513297, guid: 983d4f3ae313f9048be67c58265566c1,
        type: 3}
      propertyPath: m_LocalEulerAnglesHint.y
      value: 0
      objectReference: {fileID: 0}
    - target: {fileID: 7299264624478513297, guid: 983d4f3ae313f9048be67c58265566c1,
        type: 3}
      propertyPath: m_LocalEulerAnglesHint.z
      value: 0
      objectReference: {fileID: 0}
    m_RemovedComponents: []
  m_SourcePrefab: {fileID: 100100000, guid: 983d4f3ae313f9048be67c58265566c1, type: 3}
