%YAML 1.1
%TAG !u! tag:unity3d.com,2011:
--- !u!1001 &3846603018771660717
PrefabInstance:
  m_ObjectHideFlags: 0
  serializedVersion: 2
  m_Modification:
    m_TransformParent: {fileID: 0}
    m_Modifications:
    - target: {fileID: 3848113550324203383, guid: 53e854ce9fcb2aa4491aa2faf3e4b89d,
        type: 3}
      propertyPath: m_Name
      value: Eff9_Left
      objectReference: {fileID: 0}
    - target: {fileID: 3850319019394624247, guid: 53e854ce9fcb2aa4491aa2faf3e4b89d,
        type: 3}
      propertyPath: m_LocalPosition.x
      value: 0
      objectReference: {fileID: 0}
    - target: {fileID: 3850319019394624247, guid: 53e854ce9fcb2aa4491aa2faf3e4b89d,
        type: 3}
      propertyPath: m_LocalPosition.y
      value: 0
      objectReference: {fileID: 0}
    - target: {fileID: 3850319019394624247, guid: 53e854ce9fcb2aa4491aa2faf3e4b89d,
        type: 3}
      propertyPath: m_LocalPosition.z
      value: 0
      objectReference: {fileID: 0}
    - target: {fileID: 3850319019394624247, guid: 53e854ce9fcb2aa4491aa2faf3e4b89d,
        type: 3}
      propertyPath: m_LocalRotation.x
      value: 0
      objectReference: {fileID: 0}
    - target: {fileID: 3850319019394624247, guid: 53e854ce9fcb2aa4491aa2faf3e4b89d,
        type: 3}
      propertyPath: m_LocalRotation.y
      value: 0
      objectReference: {fileID: 0}
    - target: {fileID: 3850319019394624247, guid: 53e854ce9fcb2aa4491aa2faf3e4b89d,
        type: 3}
      propertyPath: m_LocalRotation.z
      value: 0
      objectReference: {fileID: 0}
    - target: {fileID: 3850319019394624247, guid: 53e854ce9fcb2aa4491aa2faf3e4b89d,
        type: 3}
      propertyPath: m_LocalRotation.w
      value: 1
      objectReference: {fileID: 0}
    - target: {fileID: 3850319019394624247, guid: 53e854ce9fcb2aa4491aa2faf3e4b89d,
        type: 3}
      propertyPath: m_RootOrder
      value: 0
      objectReference: {fileID: 0}
    - target: {fileID: 3850319019394624247, guid: 53e854ce9fcb2aa4491aa2faf3e4b89d,
        type: 3}
      propertyPath: m_LocalEulerAnglesHint.x
      value: 0
      objectReference: {fileID: 0}
    - target: {fileID: 3850319019394624247, guid: 53e854ce9fcb2aa4491aa2faf3e4b89d,
        type: 3}
      propertyPath: m_LocalEulerAnglesHint.y
      value: 0
      objectReference: {fileID: 0}
    - target: {fileID: 3850319019394624247, guid: 53e854ce9fcb2aa4491aa2faf3e4b89d,
        type: 3}
      propertyPath: m_LocalEulerAnglesHint.z
      value: 0
      objectReference: {fileID: 0}
    m_RemovedComponents: []
  m_SourcePrefab: {fileID: 100100000, guid: 53e854ce9fcb2aa4491aa2faf3e4b89d, type: 3}
