%YAML 1.1
%TAG !u! tag:unity3d.com,2011:
--- !u!1001 &4728383970831008568
PrefabInstance:
  m_ObjectHideFlags: 0
  serializedVersion: 2
  m_Modification:
    m_TransformParent: {fileID: 0}
    m_Modifications:
    - target: {fileID: 5486083446860244563, guid: 6ae1d2c9f97809c43a4a2d5d68c81dc4,
        type: 3}
      propertyPath: m_Name
      value: plasma_beam_muzzle_red_2
      objectReference: {fileID: 0}
    - target: {fileID: 5486083446860610163, guid: 6ae1d2c9f97809c43a4a2d5d68c81dc4,
        type: 3}
      propertyPath: m_LocalPosition.x
      value: 34
      objectReference: {fileID: 0}
    - target: {fileID: 5486083446860610163, guid: 6ae1d2c9f97809c43a4a2d5d68c81dc4,
        type: 3}
      propertyPath: m_LocalPosition.y
      value: 1
      objectReference: {fileID: 0}
    - target: {fileID: 5486083446860610163, guid: 6ae1d2c9f97809c43a4a2d5d68c81dc4,
        type: 3}
      propertyPath: m_LocalPosition.z
      value: 0
      objectReference: {fileID: 0}
    - target: {fileID: 5486083446860610163, guid: 6ae1d2c9f97809c43a4a2d5d68c81dc4,
        type: 3}
      propertyPath: m_LocalRotation.x
      value: 0
      objectReference: {fileID: 0}
    - target: {fileID: 5486083446860610163, guid: 6ae1d2c9f97809c43a4a2d5d68c81dc4,
        type: 3}
      propertyPath: m_LocalRotation.y
      value: 0
      objectReference: {fileID: 0}
    - target: {fileID: 5486083446860610163, guid: 6ae1d2c9f97809c43a4a2d5d68c81dc4,
        type: 3}
      propertyPath: m_LocalRotation.z
      value: 0
      objectReference: {fileID: 0}
    - target: {fileID: 5486083446860610163, guid: 6ae1d2c9f97809c43a4a2d5d68c81dc4,
        type: 3}
      propertyPath: m_LocalRotation.w
      value: 1
      objectReference: {fileID: 0}
    - target: {fileID: 5486083446860610163, guid: 6ae1d2c9f97809c43a4a2d5d68c81dc4,
        type: 3}
      propertyPath: m_RootOrder
      value: 0
      objectReference: {fileID: 0}
    - target: {fileID: 5486083446860610163, guid: 6ae1d2c9f97809c43a4a2d5d68c81dc4,
        type: 3}
      propertyPath: m_LocalEulerAnglesHint.x
      value: 0
      objectReference: {fileID: 0}
    - target: {fileID: 5486083446860610163, guid: 6ae1d2c9f97809c43a4a2d5d68c81dc4,
        type: 3}
      propertyPath: m_LocalEulerAnglesHint.y
      value: 0
      objectReference: {fileID: 0}
    - target: {fileID: 5486083446860610163, guid: 6ae1d2c9f97809c43a4a2d5d68c81dc4,
        type: 3}
      propertyPath: m_LocalEulerAnglesHint.z
      value: 0
      objectReference: {fileID: 0}
    m_RemovedComponents: []
  m_SourcePrefab: {fileID: 100100000, guid: 6ae1d2c9f97809c43a4a2d5d68c81dc4, type: 3}
