%YAML 1.1
%TAG !u! tag:unity3d.com,2011:
--- !u!1001 &9024698503067042042
PrefabInstance:
  m_ObjectHideFlags: 0
  serializedVersion: 2
  m_Modification:
    m_TransformParent: {fileID: 0}
    m_Modifications:
    - target: {fileID: 2501754211064740767, guid: 8b681fa4be2036d4898b9ac7de2cfb3f,
        type: 3}
      propertyPath: Damage
      value: 350
      objectReference: {fileID: 0}
    - target: {fileID: 6409942133898207427, guid: 8b681fa4be2036d4898b9ac7de2cfb3f,
        type: 3}
      propertyPath: InitialModule.startColor.maxColor.r
      value: 1
      objectReference: {fileID: 0}
    - target: {fileID: 6409942133898207427, guid: 8b681fa4be2036d4898b9ac7de2cfb3f,
        type: 3}
      propertyPath: InitialModule.startColor.maxColor.g
      value: 0.8835707
      objectReference: {fileID: 0}
    - target: {fileID: 6409942133898207427, guid: 8b681fa4be2036d4898b9ac7de2cfb3f,
        type: 3}
      propertyPath: InitialModule.startColor.maxColor.b
      value: 0
      objectReference: {fileID: 0}
    - target: {fileID: 6409942133898207427, guid: 8b681fa4be2036d4898b9ac7de2cfb3f,
        type: 3}
      propertyPath: InitialModule.rotation3D
      value: 1
      objectReference: {fileID: 0}
    - target: {fileID: 6409942133898207427, guid: 8b681fa4be2036d4898b9ac7de2cfb3f,
        type: 3}
      propertyPath: InitialModule.startRotationX.scalar
      value: 1.5707963
      objectReference: {fileID: 0}
    - target: {fileID: 6496276010419767511, guid: 8b681fa4be2036d4898b9ac7de2cfb3f,
        type: 3}
      propertyPath: m_LocalPosition.x
      value: -4.0955358
      objectReference: {fileID: 0}
    - target: {fileID: 6496276010419767511, guid: 8b681fa4be2036d4898b9ac7de2cfb3f,
        type: 3}
      propertyPath: m_LocalPosition.y
      value: 0.28446817
      objectReference: {fileID: 0}
    - target: {fileID: 6496276010419767511, guid: 8b681fa4be2036d4898b9ac7de2cfb3f,
        type: 3}
      propertyPath: m_LocalPosition.z
      value: 10.710621
      objectReference: {fileID: 0}
    - target: {fileID: 6496276010419767511, guid: 8b681fa4be2036d4898b9ac7de2cfb3f,
        type: 3}
      propertyPath: m_LocalRotation.x
      value: 0
      objectReference: {fileID: 0}
    - target: {fileID: 6496276010419767511, guid: 8b681fa4be2036d4898b9ac7de2cfb3f,
        type: 3}
      propertyPath: m_LocalRotation.y
      value: 0
      objectReference: {fileID: 0}
    - target: {fileID: 6496276010419767511, guid: 8b681fa4be2036d4898b9ac7de2cfb3f,
        type: 3}
      propertyPath: m_LocalRotation.z
      value: 0
      objectReference: {fileID: 0}
    - target: {fileID: 6496276010419767511, guid: 8b681fa4be2036d4898b9ac7de2cfb3f,
        type: 3}
      propertyPath: m_LocalRotation.w
      value: 1
      objectReference: {fileID: 0}
    - target: {fileID: 6496276010419767511, guid: 8b681fa4be2036d4898b9ac7de2cfb3f,
        type: 3}
      propertyPath: m_RootOrder
      value: 0
      objectReference: {fileID: 0}
    - target: {fileID: 6496276010419767511, guid: 8b681fa4be2036d4898b9ac7de2cfb3f,
        type: 3}
      propertyPath: m_LocalEulerAnglesHint.x
      value: 0
      objectReference: {fileID: 0}
    - target: {fileID: 6496276010419767511, guid: 8b681fa4be2036d4898b9ac7de2cfb3f,
        type: 3}
      propertyPath: m_LocalEulerAnglesHint.y
      value: 0
      objectReference: {fileID: 0}
    - target: {fileID: 6496276010419767511, guid: 8b681fa4be2036d4898b9ac7de2cfb3f,
        type: 3}
      propertyPath: m_LocalEulerAnglesHint.z
      value: 0
      objectReference: {fileID: 0}
    - target: {fileID: 6499578844485369001, guid: 8b681fa4be2036d4898b9ac7de2cfb3f,
        type: 3}
      propertyPath: m_Name
      value: Slash wave yellow
      objectReference: {fileID: 0}
    m_RemovedComponents: []
  m_SourcePrefab: {fileID: 100100000, guid: 8b681fa4be2036d4898b9ac7de2cfb3f, type: 3}
