%YAML 1.1
%TAG !u! tag:unity3d.com,2011:
--- !u!1001 &2617673466590712210
PrefabInstance:
  m_ObjectHideFlags: 0
  serializedVersion: 2
  m_Modification:
    m_TransformParent: {fileID: 0}
    m_Modifications:
    - target: {fileID: 2617673466590746416, guid: 0ed01a07c34bcc1428ce644b45f0a8e0,
        type: 3}
      propertyPath: m_IsActive
      value: 1
      objectReference: {fileID: 0}
    - target: {fileID: 2617673466590746418, guid: 0ed01a07c34bcc1428ce644b45f0a8e0,
        type: 3}
      propertyPath: m_IsActive
      value: 1
      objectReference: {fileID: 0}
    - target: {fileID: 2617673466590746422, guid: 0ed01a07c34bcc1428ce644b45f0a8e0,
        type: 3}
      propertyPath: m_Name
      value: laser_impulse_flare_003
      objectReference: {fileID: 0}
    - target: {fileID: 2617673466590841622, guid: 0ed01a07c34bcc1428ce644b45f0a8e0,
        type: 3}
      propertyPath: m_LocalPosition.x
      value: 57
      objectReference: {fileID: 0}
    - target: {fileID: 2617673466590841622, guid: 0ed01a07c34bcc1428ce644b45f0a8e0,
        type: 3}
      propertyPath: m_LocalPosition.y
      value: 1
      objectReference: {fileID: 0}
    - target: {fileID: 2617673466590841622, guid: 0ed01a07c34bcc1428ce644b45f0a8e0,
        type: 3}
      propertyPath: m_LocalPosition.z
      value: 0
      objectReference: {fileID: 0}
    - target: {fileID: 2617673466590841622, guid: 0ed01a07c34bcc1428ce644b45f0a8e0,
        type: 3}
      propertyPath: m_LocalRotation.x
      value: 0
      objectReference: {fileID: 0}
    - target: {fileID: 2617673466590841622, guid: 0ed01a07c34bcc1428ce644b45f0a8e0,
        type: 3}
      propertyPath: m_LocalRotation.y
      value: 0
      objectReference: {fileID: 0}
    - target: {fileID: 2617673466590841622, guid: 0ed01a07c34bcc1428ce644b45f0a8e0,
        type: 3}
      propertyPath: m_LocalRotation.z
      value: 0
      objectReference: {fileID: 0}
    - target: {fileID: 2617673466590841622, guid: 0ed01a07c34bcc1428ce644b45f0a8e0,
        type: 3}
      propertyPath: m_LocalRotation.w
      value: 1
      objectReference: {fileID: 0}
    - target: {fileID: 2617673466590841622, guid: 0ed01a07c34bcc1428ce644b45f0a8e0,
        type: 3}
      propertyPath: m_RootOrder
      value: 0
      objectReference: {fileID: 0}
    - target: {fileID: 2617673466590841622, guid: 0ed01a07c34bcc1428ce644b45f0a8e0,
        type: 3}
      propertyPath: m_LocalEulerAnglesHint.x
      value: 0
      objectReference: {fileID: 0}
    - target: {fileID: 2617673466590841622, guid: 0ed01a07c34bcc1428ce644b45f0a8e0,
        type: 3}
      propertyPath: m_LocalEulerAnglesHint.y
      value: 0
      objectReference: {fileID: 0}
    - target: {fileID: 2617673466590841622, guid: 0ed01a07c34bcc1428ce644b45f0a8e0,
        type: 3}
      propertyPath: m_LocalEulerAnglesHint.z
      value: 0
      objectReference: {fileID: 0}
    m_RemovedComponents: []
  m_SourcePrefab: {fileID: 100100000, guid: 0ed01a07c34bcc1428ce644b45f0a8e0, type: 3}
